HDAT9800 – Urvi’s HDAT 9800 Journey
…
filter(flights, month == 1, day == 1) # For rows

# A tibble: 842 × 19
    year month   day dep_time sched_dep_time dep_delay arr_time sched_arr_time
   <int> <int> <int>    <int>          <int>     <dbl>    <int>          <int>
 1  2013     1     1      517            515         2      830            819
 2  2013     1     1      533            529         4      850            830
 3  2013     1     1      542            540         2      923            850
 4  2013     1     1      544            545        -1     1004           1022
 5  2013     1     1      554            600        -6      812            837
 6  2013     1     1      554            558        -4      740            728
 7  2013     1     1      555            600        -5      913            854
 8  2013     1     1      557            600        -3      709            723
 9  2013     1     1      557            600        -3      838            846
10  2013     1     1      558            600        -2      753            745
# ℹ 832 more rows
# ℹ 11 more variables: arr_delay <dbl>, carrier <chr>, flight <int>,
#   tailnum <chr>, origin <chr>, dest <chr>, air_time <dbl>, distance <dbl>,
#   hour <dbl>, minute <dbl>, time_hour <dttm>
…
# A tibble: 4 × 19
   year month   day dep_time sched_dep_time dep_delay arr_time sched_arr_time
  <int> <int> <int>    <int>          <int>     <dbl>    <int>          <int>
1  2013     1     1      517            515         2      830            819
2  2013     1     1      533            529         4      850            830
3  2013     1     1      542            540         2      923            850
4  2013     1     1      544            545        -1     1004           1022
# ℹ 11 more variables: arr_delay <dbl>, carrier <chr>, flight <int>,
#   tailnum <chr>, origin <chr>, dest <chr>, air_time <dbl>, distance <dbl>,
#   hour <dbl>, minute <dbl>, time_hour <dttm>

arrange(flights, year, month, day) # Reorders rows

# A tibble: 336,776 × 19
    year month   day dep_time sched_dep_time dep_delay arr_time sched_arr_time
   <int> <int> <int>    <int>          <int>     <dbl>    <int>          <int>
 1  2013     1     1      517            515         2      830            819
 2  2013     1     1      533            529         4      850            830
 3  2013     1     1      542            540         2      923            850
 4  2013     1     1      544            545        -1     1004           1022
 5  2013     1     1      554            600        -6      812            837
 6  2013     1     1      554            558        -4      740            728
 7  2013     1     1      555            600        -5      913            854
 8  2013     1     1      557            600        -3      709            723
 9  2013     1     1      557            600        -3      838            846
10  2013     1     1      558            600        -2      753            745
# ℹ 336,766 more rows
# ℹ 11 more variables: arr_delay <dbl>, carrier <chr>, flight <int>,
#   tailnum <chr>, origin <chr>, dest <chr>, air_time <dbl>, distance <dbl>,
#   hour <dbl>, minute <dbl>, time_hour <dttm>

arrange(flights, desc(arr_delay)) |> select(arr_delay) # Reorders 'arr_delay

# A tibble: 336,776 × 1
   arr_delay
       <dbl>
 1      1272
 2      1127
 3      1109
 4      1007
 5       989
 6       931
 7       915
 8       895
 9       878
10       875
# ℹ 336,766 more rows

# as descending and this is then piped to select(), that filters the column.
# Some examples to use select():
select(flights, year:day)

# A tibble: 336,776 × 3
    year month   day
   <int> <int> <int>
 1  2013     1     1
 2  2013     1     1
 3  2013     1     1
 4  2013     1     1
 5  2013     1     1
 6  2013     1     1
 7  2013     1     1
 8  2013     1     1
 9  2013     1     1
10  2013     1     1
# ℹ 336,766 more rows

select(flights, -(year:day)) # Columns you dont wanna see.

# A tibble: 336,776 × 16
   dep_time sched_dep_time dep_delay arr_time sched_arr_time arr_delay carrier
      <int>          <int>     <dbl>    <int>          <int>     <dbl> <chr>  
 1      517            515         2      830            819        11 UA     
 2      533            529         4      850            830        20 UA     
 3      542            540         2      923            850        33 AA     
 4      544            545        -1     1004           1022       -18 B6     
 5      554            600        -6      812            837       -25 DL     
 6      554            558        -4      740            728        12 UA     
 7      555            600        -5      913            854        19 B6     
 8      557            600        -3      709            723       -14 EV     
 9      557            600        -3      838            846        -8 B6     
10      558            600        -2      753            745         8 AA     
# ℹ 336,766 more rows
# ℹ 9 more variables: flight <int>, tailnum <chr>, origin <chr>, dest <chr>,
#   air_time <dbl>, distance <dbl>, hour <dbl>, minute <dbl>, time_hour <dttm>

select(flights, tail_num = tailnum) # Renaming a column. Can also be done as

# A tibble: 336,776 × 1
   tail_num
   <chr>   
 1 N14228  
 2 N24211  
 3 N619AA  
 4 N804JB  
 5 N668DN  
 6 N39463  
 7 N516JB  
 8 N829AS  
 9 N593JB  
10 N3ALAA  
# ℹ 336,766 more rows

#rename(flights, tail_num = tailnum) |> select(year:day, tail_num)

mutate(flights, gain = arr_delay - dep_delay, speed = distance/air_time*60) |> select(arr_delay, dep_delay, distance, air_time, gain, speed) # Adding new cols that are functions of existing cols.

# A tibble: 336,776 × 6
   arr_delay dep_delay distance air_time  gain speed
       <dbl>     <dbl>    <dbl>    <dbl> <dbl> <dbl>
 1        11         2     1400      227     9  370.
 2        20         4     1416      227    16  374.
 3        33         2     1089      160    31  408.
 4       -18        -1     1576      183   -17  517.
 5       -25        -6      762      116   -19  394.
 6        12        -4      719      150    16  288.
 7        19        -5     1065      158    24  404.
 8       -14        -3      229       53   -11  259.
 9        -8        -3      944      140    -5  405.
10         8        -2      733      138    10  319.
# ℹ 336,766 more rows
…
sample_frac(flights, 0.01) #Takes 0.01 of the df randomly.

# A tibble: 3,368 × 19
    year month   day dep_time sched_dep_time dep_delay arr_time sched_arr_time
   <int> <int> <int>    <int>          <int>     <dbl>    <int>          <int>
 1  2013     6     7     1910           1830        40     2215           2200
 2  2013    10     1     1253           1250         3     1359           1410
 3  2013     9     5      942            949        -7     1114           1200
 4  2013     4     3     2050           2045         5     2215           2219
 5  2013    12    19     1723           1720         3     2023           2030
 6  2013     3     4     1401           1350        11     1604           1557
 7  2013    10     9     1051           1053        -2     1210           1228
 8  2013     1    21     1808           1815        -7     1955           1958
 9  2013    12    11     1031           1040        -9     1312           1302
10  2013     4    10      653            630        23      922            913
# ℹ 3,358 more rows
# ℹ 11 more variables: arr_delay <dbl>, carrier <chr>, flight <int>,
#   tailnum <chr>, origin <chr>, dest <chr>, air_time <dbl>, distance <dbl>,
#   hour <dbl>, minute <dbl>, time_hour <dttm>
…
